{
 	"STUDENT": {
 		"ACCOUNTING":{
 			
 		},
 		"EDIT":{
 			
 			
 			"AL":"Бухгалтерский учет",
 			"Y":"Учебный год",
 			"Paid":"Оплачено",
 			"L":"Остаток",
 			
 			"PC":"Изменить пароль ",
	 		"IE":"Редактировать информацию",
	 		"NP":"Новый пароль",
	 		"P":"Пароль",
	 		"S":"Предмет",
	 		"SBJ":"Сохранить",
	 		"FN":"Ф.И.О",
	 		"BD":"Дата рождения",
	 		"E":"Эл. почта",
	 		"FNAME":"ФИО родителя(ей)",
	 		"FNUMBER":"Контактный тел.",
	 		"MNAME":"Имя матери",
	 		"MNUMBER":"Номер матери",
	 		"U":"Обновить",
	 		
	 		"CY":"Учебный год",
 			"Q":"Четверть",
 			
 			"T":"Учитель",
 			"TR":"Учитель",
 			"G":"Класс",
 			"R":"Кабинет",
 			"DESCRIPT":"Описание",
 			
 			"MC":"Мои предметы",
 			"AVERAGE":"Средняя оценка",
 			"HOURS":"Время",
 			"INFO":"Информация",
 			"ECP" : "Введите текущий пароль",
 			"NP" : "Новый пороль",
 			"RP" : "Новый пароль еще раз"
 		
 		},
 		"SECCESSREPORT":{
 	
 			
 		
 		},
 		"MYCLASSES":{
 		
 		},
 		"MYCOURSES":{
 		
 		},
 		
 		"TIMETABLE":{
 		
 			"TIMETABLE" : "Расписание", 
 			"TIME" : "Время",
 			"MON" : "Понедельник",
 			"TUE" : "Вторник",
 			"WED" : "Среда",
 			"THU" : "Четверг",
 			"FRI" : "Пятница"
 		
 		}
 		
 	}
}
