{
 	"DOCTOR": {
 	
 		"NEWS":{
 			"NEWS" : "Жаңылыктар ",
 			"TITLE" : "Башкы сөз",
 			"TEXT" : "Ачыктама",
 			"AN" : "Жаңылык кошуу",
 			"EN" : "Өзгөртүү",
 			"DN" : "Өчурүү",
 			"DATE" : "Дата",
 			"O" : "Oпции",
 			"EI" : "Төмөндөгү маалыматтарды толтуруңуз"
 		},
 		"COMMON":{
	 		"RESULT" : "Жыйынтык",
	 		"Delete" : "Өчурүү",
	 		"Save" : "Сактоо",
	 		"Cancel" : "Баш тарт",
 			"Show" : "Көрсөт",
	 		"Male" : "Еркек", 
	 		"Female" : "Аял",
	 		"Select" : "Танда",
	 		"Update" : "Жанылоо",
 			"G" : "Жынысы",
 			"Previous" : "Муруңку",
 			"Next" : "Kийинки"
 		},
 		 "PERIOD":{
 			"N" : "Текшерүү учурудун аты",
 			"ANP" : "Жаны текшерүү учур кошуу",
 			"EP" : "Оңдоо",
 			"PL" : "Текшерүү учур тизмеси",
 			"DF" : "Башталыш күнү",
 			"DT" : "Аякташ күнү",
 			"D" : "Ачыктама"
 		},
 		
 		"CHECKUP" : {
 			"CHECKUP" : "Текшерүү",
 			"CHKR" : "Текшерүү жыйынтыгы",
 			"P" : "Текшерүү Учуру",
 			"GR" : "Группа",
 			"GRL" : "Группа тизмеси",
 			"N" : "Аты",
 			"S": "Фимилиясы",
 			"H" : "Бой",
 			"W" : "Салмагы",
 			"WH" : "Бойго карата салмагы",
 			"HC" : "Комментарий",
 			"WC" : "Комментарий",	
 			"WCH" : "Комментарий",	
 			"G" : "Жынысы",
 			"D" : "Дата",
 			"BD" : "Туулган жылы",
 			"NS" : "Стандарт жок"
 		},
 		"STANDARDS" : {
 			"HEIGHT" : "Бой",
 			"MONTH" : "Ай",
 			"CAT1" : "-3CO",
 			"CAT2" : "-2CO",
 			"CAT3" : "-1CO",
 			"CAT4" : "Норма",
 			"CAT5" : "1CO",
 			"CAT6" : "2CO",
 			"CAT7" : "3CO",
 			"SHTA" : "Жашына карата боюнун стандарттары",
 			"SWTA" : "Жашына карата салмагынын стандарттары",
 			"SWTH" : "Боюна карата салмагынын стандарттары"
 		} 
	}
}