{
 	"COMMON": {
	 		
	 			"MYCOURSE" : "My course",
	 			"SYL" : "Syllabus",
	 			"MARK" : "Student marks",
	
	 			"TT":"Time table",
	 			"MCL":"My Class",
	 			"MCO":"My Courses",
	 			"SR":"Success report",
	 			"AC":"Accounting",
 				"IE":"Edit",
 				"NEWS" : "News",
 				"PERIOD" : "Period",
 				"CHECKUP" : "Check Up",
 				"STANDARDS" : "Standards",
 			
 				"STS":"Students",
 				"THR":"Teachers",
 				"STF":"Staff",
 				"ACC":"Accounting",
 				"LBR":"Library",
 				"CRS":"Subjects",
 				"SST":"System Settings",
 				
 				"BOOKS":"Books",
 				"CATEGORY":"Category",
 				"BOOKTYPE":"Book type",
 				"BOOKSTATUS":"Book status",
 				"BOOKGIVER":"Book giver",
 				"BOOKSFORRETURN":"Book for return",
 				"BOOKCHANGE" : "Change password",
 				
 				"SETTINGS":"Settings",
 				"SEC_TEACHER":"Teachers",
 				"SEC_LIBRARY":"Library",
 				"SEC_LESSON":"Lessons",
 				"SEC_COURSE":"Subjects",
 				"SEC_STAFF":"Staff",
 				"SEC_TIMETABLE":"Time table",
 				"SEC_CLASSHOUR" : "Lesson hours",
 				"SEC_GROUP" : "Class",
 				"SEC_GRADE" : "Grading system",
		 	    "SEC_CHANGE" : "Change password",
 				
 		"TEMPLATES": {
 			"Profile" : "Profile",
 			"Help" : "Help",
 			"Program":"Aboout program",
 			"Logout" : "Logout",
 			"KG" : "Kyrgyz",
 			"EN" : "English",
 			"RU" : "Russian"			
 		}
 	
 	}
}
