{
 	"TEACHER": {
 		"COURSE":{
 			"Exam" : "Сынак",
 			"Select_a_syllabus" : "Теманы танданыз",
 			"Student" : "Окуучуу",
 			"Mark" : "Баа",
 			"Attendance" : "Жоктомо",
 			"Profile" : "Профиль",
 			"Save" : "Сакта",
 			"Back" : "Артка",
 			
 			"Select_syllabus_and_set_date" : "Теманы тандап датаны жазыныз",
 			"Select_a_syllabus" : "Теманы танданыз",
 			"Save": "Сакта",
 			"Cancel" : "Артка",
 			
 			"Courses_List": "Сабактардын тизмеси",
 			"Exam" : "Сынак",
 			"Journal" : "Журнал",
 			"Start_course" : "Сабакты башта",
 			
 			"Course" : "Сабак",
 			"Select_a_syllabus" : "Теманы танданыз",
 			"Student" : "Окуучуу",
 			"Mark" : "Баа",
 			"Attendance" : "Жоктомо",
 			"Profile" : "Профиль",
 			"Save": "Сакта",
 			"Cancel" : "Артка",
 			"Operations" : "Кыймылдар",
 			"Previous" : "Мурунку",
 			"Next" : "Кийинки"
 	
 		},
 		"SETTINGS":{
 		
 		},
 		"STD_MARKS":{
 			"Edit_student_marks_for_syllabus" : "Окуучулардын бааларын алмаштыруу : тема",
 			"Student" : "Окуучуу",
 			"Mark" : "Баа",
 			"Attendance" : "Жоктомо",
 			"Update" : "Жаныла",
 			"Cancel" : "Артка",
 			
 			"Course" : "Сабак",
 			"SHOW" : "Көрсөт",
 			"Quarter" : "Чейрек"
 		
 		},
 		"SYLLABUS":{
 			"Add_new_Syllabus" : "Жаны тема кошуу", 
 			"Syllabus_topic" : "Пландалган тема",
 			"Select_course" :"Сабакты тандоо",
 			"Planned_date" : "Пландалган дата",
 			"Select_quarter" : "Чейректи тандоо ",
 			"Description" : "Ачыктама",
 			"Submit" : "Сакта",
 			"Cancel" : "Артка",
 			
 			"Edit_Syllabus" : "Планды ондоо",
 			"Syllabus_topic" : "Пландалган тема",
 			"Description" : "Ачыктама",
 			"Select_course" : "Сабакты тандоо",
 			"Date" : "дата",
 			"Update" : "Жаныла",
 			"Cancel" : "Артка",
 			
 			"Syllabus_Information" : "Тема тууралуу Информация",
 			"Syllabus_topic" : "Пландалган тема",
 			"Description" : "Ачыктама", 
 			"Syllabus_course" : "Курска Программа ",
 			"Planned_Date" : "Пландалган дата",
 			"Completed_Date" : "Бүтчү датасы",
 			"Back" : "Артка",
 			
 			"Syllabus_List" : "Пландардын тизмеси",
 			"Add_new_Syllabus" : "Жаны тема кошуу",
 			
 					
 			"Syllabus_Topic" : "Пландалган тема",
 			"Course" : "Сабак",
 			"Date" : "дата",
 			"Complited" : "Бүттү",
 			"Yer" : "Жылы",
 			"Operations" : "Кыймылдар"
 			
 		
 		}
 	}
}
