{
 	"ACCOUNTANT": {
 		"ACCOUNTING":{
  			"Accounting_List" : "Бухгалтерский учет",
 			"Student" : "Cтудент",
 			"Year" : "Год",
 			"Annual_Fee" : "Годовая плата",
 			"Paid" : "Оплачено",
 			"Left" : "Осталось",
 			"Completed" : "Завершен",
 			"Payment" : "Oплата",
 			"Show" : "Показать",
 			"Pay" : "Оплатить",
 			"Previous" : "Предыдущий",
 			"Next": "Следующий",
 			"Student_list": "Список Студентов",
 			"Set_annual_fee" : "Задать ежегодную плату",
 			"EI" : "Пожалуйста, введите информацию",
 			"Kindergarten_Student_List" : "Детский сад список воспитанников",
 			"AF" : "Годовая плата",
 			"PF" : "Оплаченная сумма",
 			"EPA" : "Введите сумму оплаты",
 			"Save" : "Сохранить",
 			"Cancel" : "Отменить",
 			"Set" : "Задать "
 			
 		},
 		
 		"MATERIAL" : {
 			"Inventory" : "Инвентарь",
             "IL" : "Список инвентарей",
             "CL" : "Категория лист",
             "TL" : "Тип списка",
             "PL" : "Список местоположений",
             "R" : "Отчет",
             "N" : "Название",
             "ANC" : "Добавить новую категорию",
             "D" : "Описание",
             "O" : "Опции",
             "EC" : "Редактировать категории",
             "ET" : "Редактировать тип",
             "EP" : "Редактировать местоположение",
             "Update" : "Обновить",
             "Cost" : "Цена",
             "Category" : "Категория",
             "ANT" : "Добавить новый тип",
             "Select" : "Выбрать",
             "P" : "Местоположение",
             "T" : "Тип",
             "Owner" : "Владелец",
             "A" : "Количество",
 			 "ANP" : "Добавить новое место",
 			 "ANI" : "Добавить новый инвентарь",
 			 "C" : "Категория",
 			 "OwnerC" : "Категория владельца",
 			 "IN" : "Инвентарный номер",
 			 "RD" : "Дата регистрации",
 			 "ID" : "Дата Удаления",
 			 "ST" : "Статус",
 			 "DI" : "Удаленный Инвентарь",
 			 "DIL" : "Список Удаленных Инвентарей "
 		},
 		"PASS" : {
 			"PRS" : "Настройки профиля",
 			"PSS" : "Настройки пароля",
 			"SAVE" : "Сохранить" 			
 		}	
 	}
}
