{
 	"LIBRARY": {
 		"BOOKS":{
 			"BOOK_NAME":"Название книг",
 			"AUTHOR":"Автор",
 			"CATEGORY":"Категория",
 			"STATUS":"Статус",
 			"COST":"Цена",
 			"YEAR":"Год",
 			"BARCODE":"Штрих код",
 			"INVENT":"Инв-й номер",
 			
	 		
	 		"Book_Name" : "Наименование книги",
 			"Submit" : "Потвердить",
 			"Cancel" : "Отменить",
 			"Book_list" : "Список книг",
 			"SHOW" : "Показать",
 			"Add_new_book": "Добавить новую книгу",
 			"Please_enter_information_below": "Заполните нижеперечисленные данные",
 			"Book_Type_name" : "Тип Книги",
 			"Barcode": "Штрих код",
 			"Invent_number" :"Инвентарный номер",
 			"Book_Status" : "Состояние книги",
 			"Result" : "Результат" 		
 			
 		},
 		"CATEGORY":{
 			"Category_List" : "Список категорий",
 			"Category_name" : "Наименование категорийи",
 			"Category_Name" : "Наименование категорийи",
 			"Add_new_Category" : "Добавить новую категорию",
 			"Operations":"Операции",
 			"Submit" :  "Потвердить",
 			
 			"Edit_category_name" : "Изменить наименование категорийи ",
 			"Update" : "Обновить",
 			"Total_Cost" : "Цена",
 			"Amount_of_Books" : "Количество"
 		
 		
 		},
 		"SETTINGS":{
 			"Edit_login_and_password" : "Логин и пароль",
 			"Login" : "Текущий пароль",
 			"Password" : "Пароль",
 			"Confirm_password" : "Подтвердите пароль", 
 			"Submit": "Сохранить",
 			"Cancel" : "Отменить"
 		
 		},
 		"STATUS":{
 			"Edit_status_name" : "Редактировать имя статуса",
 			"Add_new_Status":"Добавить статус",
 			"Status_name": "Наименование статуса ",
 			"Submit" : "Потвердить",
 			"Book_type_list" : "Перечень видов книг ",
 			"Status_List":"Список положений"
 		
 		},
 		"TYPE":{
 			"TYPE_NAME":"Название книг",
 			"TYPE_AUTHOR":"Автор",
 			"TYPE_CATEGORY":"Категория",
 			"TYPE_YEAR":"Год",
 			"TYPE_COST":"Цена",
 			"TYPE_AMOUNT":"Количество",
 			"TYPE_OPERATIONS":"Операци",
 			"TYPE_SHOW":"Показать",
 			"Please_enter_information_below" : "Заполните нижеперечисленные данные",
 			"Book_name" : "Наименование книги",
 			"Author" : "Автор книги",
 			"Published_Year" : "Дата публикации",
 			"Category" : "Категория",
 			"Cost" : "Стоимость",
 			
 			"Book_type_name" : "Тип Книги",
 			"Author" : "Автор книги",
 			"Published_Year" : "Дата публикации",
 			"Category" : "Категория",
 			"Cost" : "Стоимость",
 			"Submit" : "Submit",
 			"Cancel" :  "Cancel",
 			
 			"Book_type_list" : "Перечень видов книг ",
 			"Add_new_Type" : "Добавить новый тип книги" 
 		
 		},
 		"GIVE":{
 			"LISTUSE":"Лист пользующихся книгой",
 			"SHOW":"Показать",
 			"ADDNEW":"Добавить новую книгу в пользования",
 			"OWNERNAME":"Имя владельца",
 			"BOOKNAME":"Название книги",
 			"G_INVENT":"Инв-й номер",
 			"G_BARCODE":"Штрих код",
 			"BNDATE":"Начало",
 			"ENDATE":"Конец",
 			"CHOSEOWNER":"Выбор владельца",
 			"CHOSEBOOK":"Выбор книги",
 			"OWNERTYPE":"Тип владельца",
 			"STUDNUM":"Студенческий номер",
 			"TEACHNUM":"Преподовательский номер",
 			"STUFFNUM":"Номер персонала",
 			"FULLNAME":"Полное имя",
 			"CLASS":"Класс",
 			"SAVE":"Сохранить",
 			"PREV":"Назад",
 			"NEXT":"Вперед",
 			"CANCEL" : "Отменить",
 			"RETURNDATE" : "Дата возврящения",
 			"STEP":"Страница"
 		}
 	}
}
