{
 	"ADMIN": {
 		"STUFF":{
 			"stuff_no" : "Персонал Номери",
 			"position" : "Позициясы",
 			"SL" : "Персонал Тизмеси",
 			"ANS" : "Жаны персоналды кошуу",
 			"Show" : "Көрсөт",
 			"NS" : "Аты Фимилиясы",
 			"O" : "Oпциялар",
 			"EI" : "Төмөндөгү маалыматтарды толтурунуз",
 			"N" : "Аты",
 			"S" : "Фимилиясы",
 			"INE": "англисче",
 			"INR" : "орусча",
 			"PN" : "Телефон номери",
 			"E" : "Email",
 			"BD" : "Туулган жылы",
	 		"PA" : "Туруктуу адреси",
	 		"CA" : "Учурдагы адреси",
	 		"Passport" : "Паспорт номери",
	 		"Save" : "Сактоо",
	 		"Cancel" : "Баш тарт",
	 		"BD2": "ТУУЛГАН КҮНҮ",
	 		"CA2": "УЧУРДАГЫ АДРЕСИ",
	 		"PA2" : "ТУРУКТУУ АДРЕСИ ",
	 		"PN2" : "ТЕЛЕФОН НОМЕРИ",
	 		"E2" : "E-MAIL",
	 		"SN2" : "ПЕРСОНАЛ НОМЕРИ",
	 		"NAT2" : "УЛУТУ",
	 		"CITY2" : "ЖАРАНДЫК",
	 		"CHA2" : "БАЛДАРЫН САНЫ",
	 		"LNG2" : "ТИЛ",
	 		"EXPR2" : "ТАЖРЫЙБА",
	 		"EDU2" : "БИЛИМ",
	 		"SN" : "Персонал саны",
	 		"SN2" : "ПЕРСОНАЛ НОМУРУ",
	 		"PASSPORT": "ПАСПОРТ НОМЕРИ",
	 		"POSITION" : "ПОЗИЦИЯ",
	 		"STATUS" : "СТАТУС",
	 		"Delete" : "Өчурүү",
	 		"NAT" : "Улуту",
	 		"CITY" : "Жарандык",
	 		"CHA" : "Балдардын саны ",
	 		"LNG" : "Тил",
	 		"EXPR" : "Тажрыйба",
	 		"EDU" : "Билим",
	 		"MS2" : "ҮЙБҮЛӨӨСҮ",
	 		"MS" : "Үйбүлөөсү",
	 		"RESULT" : "Жыйынтык",
	 		"ETC" : "Экспорт в Excel",
	 		"PHOTO" : "Сүрөт",
	 		"UPD_PHOTO" : "Сүрөттү жаңыртып",
	 		"Print" : "Распечатать"
 		},
 		"TEACHERS":{
 			"TL" : "Мугалим Тизмеси",
 			"Show" : "Көрсөт",
 			"ANT" : "Жаны Мугалим кошуу",
 			"NS" : "Аты Фимилиясы",
 			"Nt" : "Улуту",
 			"G" : "Жынысы",
 			"Previous" : "Муруңку",
 			"Next" : "Kийинки",
 			"EI" : "Төмөндөгү маалыматтарды толтурунуз",
 			"N" : "Аты",
 			"S" : "Фимилиясы",
 			"INE": "англисче",
 			"INR" : "орусча",
 			"TN" : "Мугалимдин номери",
 			"PN" : "Телефон номери",
 			"E" : "Email",
 			"BD" : "Туулган жылы",
 			"Country" : "Өлкө",
	 		"Oblast" : "Область",
	 		"Region" : "Регион",
	 		"PA" : "Туруктуу адреси",
	 		"CA" : "Учурдагы адреси",
 			"BG" : "Кан группасы",
	 		"Save" : "Сактоо",
	 		"Cancel" : "Баш тарт",
	 		"Male" : "Еркек", 
	 		"Female" : "Аял",
	 		"Select" : "Танда",
	 		"Update" : "Жанылоо",
	 		"Passport" : "Паспорт номери",
	 		"TN2": "МУГАЛИМДИН НОМЕРИ",
	 		"PASSPORT": "ПАСПОРТ НОМЕРИ",
	 		"BD2": "ТУУЛГАН КҮНҮ",
	 		"CA2": "УЧУРДАГЫ АДРЕСИ",
	 		"PA2" : "ТУРУКТУУ АДРЕСИ ",
	 		"PN2" : "ТЕЛЕФОН НОМЕРИ",
	 		"E2" : "E-MAIL",
	 		"REGION" : "РЕГИОН" ,
	 		"OBLAST" : "ОБЛАСТЬ",
	 		"COUNTRY" : "ӨЛКӨ",
	 		"BLOOD" : "КАН ГРУППАСЫ ",		  
	 		"Education" : "Билим",
	 		"Category" : "Kатегория",
	 		"Accreditation" : "Аккредитация",
	 		"Awards" : "Сыймык",
	 		"Certificate" : "Сертификат",
	 		"PHOTO" : "Сүрөт",
	 		"UPD_PHOTO" : "Сүрөттү жаңыртып",
	 		"Excellent" : "Мыкты" 	
 		}
 		
 	}
}